INSERT INTO as_approved VALUES ('1','A1','3','1.65','Completed','AMRUT','');
INSERT INTO as_approved VALUES ('2','A2','8','1.98','Completed','AMRUT','');
INSERT INTO as_approved VALUES ('3','A3','16','5.22','Completed','AMRUT','');
